info face="Van Helsing" size=26 bold=0 italic=0 charset="" unicode=1 stretchH=100 smooth=1 aa=1 padding=0,0,0,0 spacing=1,1 outline=0
common lineHeight=26 base=23 scaleW=256 scaleH=256 pages=1 packed=0 alphaChnl=1 redChnl=0 greenChnl=0 blueChnl=0
page id=0 file="Van-Helsing_0.tga"
chars count=53
char id=32   x=253   y=19    width=1     height=1     xoffset=0     yoffset=0     xadvance=8     page=0  chnl=15
char id=65   x=117   y=0     width=21    height=18    xoffset=0     yoffset=1     xadvance=20    page=0  chnl=15
char id=66   x=131   y=19    width=16    height=18    xoffset=0     yoffset=1     xadvance=17    page=0  chnl=15
char id=67   x=54    y=0     width=16    height=22    xoffset=0     yoffset=1     xadvance=14    page=0  chnl=15
char id=68   x=203   y=0     width=19    height=18    xoffset=0     yoffset=1     xadvance=19    page=0  chnl=15
char id=69   x=78    y=23    width=17    height=18    xoffset=-1    yoffset=1     xadvance=16    page=0  chnl=15
char id=70   x=114   y=19    width=16    height=18    xoffset=-1    yoffset=1     xadvance=15    page=0  chnl=15
char id=71   x=10    y=0     width=18    height=23    xoffset=0     yoffset=1     xadvance=19    page=0  chnl=15
char id=72   x=223   y=0     width=19    height=18    xoffset=0     yoffset=1     xadvance=19    page=0  chnl=15
char id=73   x=243   y=0     width=11    height=18    xoffset=-2    yoffset=1     xadvance=7     page=0  chnl=15
char id=74   x=0     y=0     width=9     height=24    xoffset=-1    yoffset=1     xadvance=7     page=0  chnl=15
char id=75   x=161   y=0     width=20    height=18    xoffset=0     yoffset=1     xadvance=19    page=0  chnl=15
char id=76   x=148   y=19    width=16    height=18    xoffset=0     yoffset=1     xadvance=17    page=0  chnl=15
char id=77   x=29    y=0     width=24    height=22    xoffset=-1    yoffset=1     xadvance=23    page=0  chnl=15
char id=78   x=0     y=25    width=19    height=18    xoffset=-1    yoffset=1     xadvance=17    page=0  chnl=15
char id=79   x=165   y=19    width=16    height=18    xoffset=0     yoffset=1     xadvance=16    page=0  chnl=15
char id=80   x=214   y=19    width=15    height=18    xoffset=-1    yoffset=1     xadvance=15    page=0  chnl=15
char id=81   x=71    y=0     width=16    height=22    xoffset=0     yoffset=1     xadvance=16    page=0  chnl=15
char id=82   x=40    y=23    width=18    height=18    xoffset=0     yoffset=1     xadvance=19    page=0  chnl=15
char id=83   x=182   y=19    width=15    height=18    xoffset=0     yoffset=0     xadvance=15    page=0  chnl=15
char id=84   x=96    y=19    width=17    height=18    xoffset=0     yoffset=1     xadvance=16    page=0  chnl=15
char id=85   x=182   y=0     width=20    height=18    xoffset=-1    yoffset=1     xadvance=18    page=0  chnl=15
char id=86   x=139   y=0     width=21    height=18    xoffset=-3    yoffset=1     xadvance=14    page=0  chnl=15
char id=87   x=88    y=0     width=28    height=18    xoffset=0     yoffset=1     xadvance=29    page=0  chnl=15
char id=88   x=20    y=24    width=19    height=18    xoffset=0     yoffset=1     xadvance=19    page=0  chnl=15
char id=89   x=59    y=23    width=18    height=18    xoffset=0     yoffset=1     xadvance=18    page=0  chnl=15
char id=90   x=198   y=19    width=15    height=18    xoffset=0     yoffset=1     xadvance=15    page=0  chnl=15
char id=97   x=87    y=42    width=16    height=13    xoffset=-2    yoffset=4     xadvance=12    page=0  chnl=15
char id=98   x=14    y=62    width=12    height=13    xoffset=0     yoffset=4     xadvance=12    page=0  chnl=15
char id=99   x=0     y=44    width=12    height=17    xoffset=0     yoffset=4     xadvance=11    page=0  chnl=15
char id=100  x=167   y=38    width=13    height=13    xoffset=-1    yoffset=4     xadvance=13    page=0  chnl=15
char id=101  x=27    y=58    width=12    height=13    xoffset=-1    yoffset=4     xadvance=12    page=0  chnl=15
char id=102  x=53    y=57    width=11    height=13    xoffset=0     yoffset=4     xadvance=11    page=0  chnl=15
char id=103  x=230   y=19    width=14    height=17    xoffset=0     yoffset=4     xadvance=12    page=0  chnl=15
char id=104  x=181   y=38    width=13    height=13    xoffset=-1    yoffset=4     xadvance=11    page=0  chnl=15
char id=105  x=56    y=42    width=9     height=14    xoffset=-2    yoffset=4     xadvance=5     page=0  chnl=15
char id=106  x=245   y=19    width=7     height=16    xoffset=-1    yoffset=4     xadvance=6     page=0  chnl=15
char id=107  x=121   y=38    width=15    height=13    xoffset=0     yoffset=4     xadvance=14    page=0  chnl=15
char id=108  x=195   y=38    width=13    height=13    xoffset=-1    yoffset=4     xadvance=11    page=0  chnl=15
char id=109  x=26    y=43    width=17    height=14    xoffset=0     yoffset=4     xadvance=17    page=0  chnl=15
char id=110  x=209   y=38    width=13    height=13    xoffset=0     yoffset=4     xadvance=13    page=0  chnl=15
char id=111  x=223   y=38    width=13    height=13    xoffset=0     yoffset=4     xadvance=13    page=0  chnl=15
char id=112  x=65    y=57    width=11    height=13    xoffset=-1    yoffset=4     xadvance=10    page=0  chnl=15
char id=113  x=13    y=44    width=12    height=17    xoffset=0     yoffset=4     xadvance=12    page=0  chnl=15
char id=114  x=137   y=38    width=14    height=13    xoffset=-1    yoffset=4     xadvance=13    page=0  chnl=15
char id=115  x=44    y=42    width=11    height=14    xoffset=0     yoffset=3     xadvance=11    page=0  chnl=15
char id=116  x=237   y=37    width=13    height=13    xoffset=-1    yoffset=4     xadvance=11    page=0  chnl=15
char id=117  x=40    y=58    width=12    height=13    xoffset=-1    yoffset=4     xadvance=12    page=0  chnl=15
char id=118  x=104   y=38    width=16    height=13    xoffset=-2    yoffset=4     xadvance=14    page=0  chnl=15
char id=119  x=66    y=42    width=20    height=13    xoffset=0     yoffset=4     xadvance=21    page=0  chnl=15
char id=120  x=152   y=38    width=14    height=13    xoffset=-1    yoffset=4     xadvance=13    page=0  chnl=15
char id=121  x=0     y=62    width=13    height=13    xoffset=0     yoffset=4     xadvance=13    page=0  chnl=15
char id=122  x=77    y=56    width=11    height=13    xoffset=0     yoffset=4     xadvance=11    page=0  chnl=15
